Table 3. Self-employment								
	(1)	(2)	(3)	(4)	(5)	(6)	(7)	(8)
	scaled_assets_all	BAI	enterprise	nrents	scaled_profit	soleent	scaled_profit_r	r_started_bus_since_bas
VARIABLES	scaled_assets_all	BAI	enterprise	nrents	scaled_profit	soleent	scaled_profit_r	r_started_bus_since_bas
								
group	-29.292	0.137*	0.077**	0.021	-4.789	0.085**	-7.852*	0.014
	(249.636)	(0.077)	(0.033)	(0.031)	(5.302)	(0.038)	(4.230)	(0.018)
BLscaled_assets_all	0.226***							
	(0.025)							
loan_baseline	-75.204	-0.015	0.009	0.038	-16.296***	-0.001	-6.043	0.001
	(166.134)	(0.054)	(0.030)	(0.063)	(5.301)	(0.033)	(4.512)	(0.022)
eduvoc	328.690	0.206	-0.005	-0.122	-26.211***	-0.026	-20.150**	0.006
	(253.366)	(0.150)	(0.069)	(0.106)	(7.143)	(0.060)	(7.430)	(0.037)
edusec	-66.543	0.025	-0.029	-0.074	-19.514***	-0.085	-12.088**	-0.005
	(239.940)	(0.146)	(0.051)	(0.106)	(6.710)	(0.056)	(5.420)	(0.028)
age16	137.882	0.035	0.013	0.015	2.677	0.008	-0.217	0.003
	(87.745)	(0.027)	(0.016)	(0.015)	(1.733)	(0.017)	(1.685)	(0.009)
under16	106.104	0.026	0.007	-0.027	3.599*	-0.003	-0.432	0.006
	(91.551)	(0.029)	(0.015)	(0.023)	(2.055)	(0.016)	(1.653)	(0.013)
marr_cohab	-84.720	0.279***	0.074*	0.311***	-13.923**	-0.099**	6.917	-0.047
	(238.957)	(0.079)	(0.038)	(0.057)	(5.113)	(0.040)	(4.725)	(0.028)
age	-27.658	-0.011	0.026*	0.022	0.703	0.019	1.152	-0.005
	(71.456)	(0.031)	(0.015)	(0.016)	(1.525)	(0.012)	(1.307)	(0.009)
age_sq	0.214	0.000	-0.000*	-0.000	-0.009	-0.000*	-0.013	0.000
	(0.922)	(0.000)	(0.000)	(0.000)	(0.018)	(0.000)	(0.016)	(0.000)
buddhist	343.316	-0.023	0.039	0.036	-0.286	0.005	0.430	0.020
	(202.936)	(0.073)	(0.049)	(0.039)	(7.075)	(0.041)	(5.850)	(0.023)
hahl	-121.809	0.291	0.009	-0.187	-20.964**	0.041	-12.836*	0.004
	(652.920)	(0.212)	(0.079)	(0.124)	(9.753)	(0.087)	(7.398)	(0.038)
o.aug_b	-	-	-	-	-	-	-	-
								
sep_f	-525.006	-0.003	0.112**	0.009	-20.332***	0.096***	-9.636**	0.009
	(362.633)	(0.088)	(0.048)	(0.041)	(6.470)	(0.034)	(4.434)	(0.021)
nov_f	-577.590	-0.311	-0.261*	0.144	6.398	-0.289**	15.119***	-0.062**
	(770.327)	(0.275)	(0.149)	(0.239)	(14.430)	(0.132)	(3.170)	(0.025)
aimagd1	682.601	0.630**	0.264**	0.232		0.192	-9.546	0.094*
	(785.733)	(0.239)	(0.102)	(0.144)		(0.113)	(8.712)	(0.046)
aimagd2	601.546**	0.436**	0.297***	0.282**	3.120	0.204***	1.408	0.028
	(246.568)	(0.164)	(0.075)	(0.101)	(13.176)	(0.056)	(5.995)	(0.025)
aimagd3	805.272***	0.526***	0.177**	0.106	13.250	0.134**	-6.121	0.078**
	(258.460)	(0.164)	(0.077)	(0.092)	(8.769)	(0.053)	(6.969)	(0.028)
aimagd4	654.228*	0.202	0.074	0.157*	4.545	-0.011	-6.863	0.028
	(354.615)	(0.157)	(0.077)	(0.087)	(9.737)	(0.063)	(7.434)	(0.038)
o.aimagd5	-	-	-	-		-	-	-
								
BLBAI		0.435***						
		(0.042)						
BLenterprise			0.233***					
			(0.044)					
BLnrents				0.336***				
				(0.064)				
BLscaled_profit					0.000			
					(0.002)			
o.aimagd1					-			
								
aimagd5					12.715			
					(10.040)			
BLsoleent						0.310***		
						(0.038)		
BLscaled_profit_r							0.003	
							(0.003)	
o.BLr_started_bus_since_bas								-
								
								
Number of households	611	609	611	611	608	611	610	611
Mean Control Follow	2236	-0.159	0.585	0.331	-26.85	0.392	-12.11	0.0654
Robust standard errors in parentheses								
*** p<0.01, ** p<0.05, * p<0.1								
Asset and profit scaled by a factor of 1000. Only respondents considered.								
