Table 7. Social Outcomes.									
	(1)	(2)	(3)	(4)	(5)	(6)	(7)	(8)	(9)
	share_6_15	hours_own_child	hours_other_child	hours_child_tot	share_16_20	rectrans_y	scaled_valuerec_y	gavetrans_y	scaled_valuegave_y
VARIABLES	share_6_15	hours_own_child	hours_other_child	hours_child_tot	share_16_20	rectrans_y	scaled_valuerec_y	gavetrans_y	scaled_valuegave_y
									
group	-0.025	-0.222	-0.818	-1.059	0.031	-0.004	-0.003	-0.029	-0.015
	(0.027)	(0.385)	(0.517)	(0.629)	(0.035)	(0.038)	(0.002)	(0.038)	(0.019)
BLshare_6_15	0.515***								
	(0.049)								
loan_baseline	-0.004	-0.016	0.032	0.035	-0.016	0.045	0.004	0.071	0.042**
	(0.029)	(0.416)	(0.481)	(0.740)	(0.038)	(0.041)	(0.003)	(0.044)	(0.016)
eduvoc	-0.109*	-0.088	2.817*	2.761*	-0.033	-0.073	-0.002	0.005	-0.025
	(0.060)	(0.395)	(1.615)	(1.537)	(0.052)	(0.076)	(0.005)	(0.069)	(0.035)
edusec	-0.100**	0.833*	0.729**	1.546**	0.026	-0.039	-0.002	0.016	0.009
	(0.046)	(0.442)	(0.353)	(0.554)	(0.038)	(0.065)	(0.005)	(0.066)	(0.032)
age16	-0.032***	0.054	0.243	0.308	0.009	-0.004	-0.001	-0.003	-0.006
	(0.010)	(0.222)	(0.173)	(0.235)	(0.014)	(0.014)	(0.001)	(0.019)	(0.009)
under16	0.084***	0.345	1.085**	1.436***	0.059***	0.016	-0.000	-0.026	-0.009
	(0.014)	(0.241)	(0.485)	(0.499)	(0.018)	(0.020)	(0.001)	(0.016)	(0.006)
marr_cohab	-0.027	-0.420	0.261	-0.203	0.031	-0.001	0.002	0.061	0.024
	(0.039)	(0.623)	(0.484)	(0.760)	(0.038)	(0.048)	(0.003)	(0.039)	(0.021)
age	0.018	0.167*	0.094	0.262**	0.046***	0.011	0.001	-0.009	-0.007
	(0.018)	(0.097)	(0.058)	(0.097)	(0.014)	(0.016)	(0.001)	(0.014)	(0.006)
age_sq	-0.000	-0.001	-0.001	-0.002*	-0.001***	-0.000	-0.000	0.000	0.000
	(0.000)	(0.001)	(0.001)	(0.001)	(0.000)	(0.000)	(0.000)	(0.000)	(0.000)
buddhist	-0.011	-0.332	-0.870	-1.190	0.022	0.059	-0.005	0.053	0.046**
	(0.027)	(0.650)	(0.930)	(0.966)	(0.033)	(0.046)	(0.003)	(0.052)	(0.021)
hahl	0.014	-1.002	0.313	-0.763	0.067	-0.070	0.003	0.037	-0.014
	(0.046)	(1.592)	(0.454)	(1.626)	(0.042)	(0.069)	(0.004)	(0.074)	(0.049)
o.aug_b	-	-	-	-	-	-	-	-	-
									
sep_f	0.006	-0.436	0.832*	0.377	0.019	0.011	-0.005*	-0.067	-0.009
	(0.037)	(0.373)	(0.456)	(0.533)	(0.040)	(0.047)	(0.002)	(0.043)	(0.022)
nov_f	0.011	-0.645*	3.406	2.704	-0.030	0.046	-0.010**	0.198**	0.091
	(0.123)	(0.337)	(4.025)	(3.984)	(0.158)	(0.204)	(0.004)	(0.076)	(0.062)
aimagd1	-0.004	-0.321	1.624**	1.203	0.156**	-0.092		-0.025	-0.074
	(0.059)	(2.168)	(0.771)	(2.294)	(0.067)	(0.083)		(0.116)	(0.074)
aimagd2	-0.020	0.006	0.265	0.191	0.004	-0.033	-0.003	-0.078	-0.072
	(0.046)	(0.926)	(0.553)	(1.064)	(0.037)	(0.071)	(0.004)	(0.056)	(0.045)
aimagd3	0.002	-0.460	0.241	-0.259	0.051	0.035	-0.007	-0.049	-0.042
	(0.049)	(0.815)	(0.509)	(1.000)	(0.049)	(0.064)	(0.004)	(0.054)	(0.042)
aimagd4	0.008	0.060	1.004	1.016	0.063	-0.006	-0.008*	0.020	-0.019
	(0.061)	(0.813)	(0.681)	(0.939)	(0.039)	(0.054)	(0.004)	(0.061)	(0.044)
o.aimagd5	-	-	-	-	-	-		-	-
									
BLhours_own_child		0.019							
		(0.066)							
BLhours_other_child			-0.018						
			(0.013)						
BLhours_child_tot				-0.009					
				(0.017)					
BLshare_16_20					0.277***				
					(0.043)				
BLrectrans_y						0.152***			
						(0.049)			
BLscaled_valuerec_y							-0.000		
							(0.000)		
o.aimagd1							-		
									
aimagd5							-0.005		
							(0.005)		
BLgavetrans_y								0.252***	
								(0.045)	
BLscaled_valuegave_y									0.000***
									(0.000)
									
Number of households	611	611	611	611	611	610	238	611	611
Mean Control Follow	0.705	0.831	1.419	2.250	0.261	0.398	0.0327	0.588	0.196
Robust standard errors in parentheses									
*** p<0.01, ** p<0.05, * p<0.1									
