vars	N	n_control	mean_control	stdev_control	coef_treat	p_treat
"attrition"	4465	2266	.068	.252	.018	.018
""						
""						
""						
""						
""						
""						
""						
""						
""						
""						
""						
""						
""						
""						
""						
""						
""						
""						
""						
""						
""						
""						
""						
""						
""						
""						
""						
""						
""						
""						
""						
""						
""						
""						
""						
""						
""						
""						
""						
""						
""						
""						
""						
""						
""						
""						
""						
""						
""						
""						
""						
""						
""						
""						
""						
""						
""						
""						
""						
""						
""						
""						
""						
""						
""						
""						
""						
""						
""						
""						
""						
""						
""						
""						
""						
""						
""						
""						
""						
""						
""						
""						
""						
""						
""						
""						
""						
""						
""						
""						
""						
""						
""						
""						
""						
""						
""						
""						
""						
