vars	N	n_control	mean_control	stdev_control	coef_treat	p_treat
"members_resid_bl"	4465	2266	5.137	2.695	.043	.583
"nadults_resid_bl"	4465	2266	3.45	1.993	.031	.564
"nchildren_resid_bl"	4465	2266	1.677	1.645	.007	.859
"head_male_bl"	4465	2266	.935	.246	.001	.813
"head_age_bl"	4465	2266	47.75	15.955	1.077	.012
"head_educ_1_bl"	4465	2266	.615	.487	-.013	.353
"borrowed_alamana_bl"	4465	2266	.007	.084	-.003	.425
"borrowed_oformal2_bl"	4465	2266	.06	.238	.03	.023
"borrowed_informal_bl"	4465	2266	.068	.251	.023	.006
"borrowed_branching_bl"	4465	2266	.156	.363	.013	.523
"aloansamt_alamana_bl"	4465	2266	34.424	459.78	-12.72	.534
"aloansamt_oformal2_bl"	4465	2266	354.656	2339.502	91.782	.188
"aloansamt_informal_bl"	4465	2266	247.645	2248.117	-8.25	.88
"aloansamt_branching_bl"	4465	2266	528.032	1369.743	22.056	.758
"act_number_bl"	4465	2266	1.569	1.227	.031	.435
"act_agri_bl"	4465	2266	.599	.49	.017	.321
"inv_agri_bl"	4465	2266	13.002	72.287	-.436	.775
"sale_agri_bl"	4465	2266	9334.765	36980.76	-392.053	.665
"expense_agri_bl"	4465	2266	3368.652	8428.288	265.911	.241
"savings_agri_bl"	4465	2266	1270.938	3504.987	-76.682	.433
"empl_agri_bl"	4465	2266	22.006	95.363	-1.346	.477
"work_agri_bl"	4465	2266	60.598	101.913	5.17	.122
"act_livestock_bl"	4465	2266	.533	.499	.042	.027
"inv_livestock_bl"	4465	2266	396.866	1911.517	66.572	.2
"sale_livestock_bl"	4465	2266	3443.991	8831.396	338.899	.184
"expense_livestock_bl"	4465	2266	4111.493	10896.71	386.006	.206
"savings_livestock_bl"	4465	2266	10249.06	17032.1	1066.396	.05
"empl_livestock_bl"	4465	2266	6.867	48.927	-1.216	.272
"work_livestock_bl"	4465	2266	111.383	158.163	7.284	.215
"act_business_bl"	4465	2266	.217	.412	-.034	.011
"women_act_number_bl"	4465	2266	.218	.585	.004	.75
"women_act_bl"	4465	2266	.16	.367	.007	.466
"distance_soukpt_bl"	4125	2077	20.064	25.157	.162	.87
"self_empl_bl"	4465	2266	.78	.414	-.016	.163
"daily_dum_bl"	4465	2266	.58	.494	-.016	.194
"shock1_bl"	4125	2077	.131	.338	.002	.868
"shock1agri_bl"	4125	2077	.106	.308	.004	.642
"shock1live_bl"	4125	2077	.03	.172	.003	.606
"hadlost_livestockanim_bl"	4465	2266	.189	.392	.029	.012
"shock2_bl"	4465	2266	.218	.413	.013	.168
"consumption_bl"	4465	2266	2271.611	1349.195	28.302	.44
"cons_nondurables_bl"	4465	2266	2226.511	1295.439	20.161	.559
"cons_durables_bl"	4465	2266	45.099	235.935	8.141	.231
"poor_bl"	4465	2266	.247	.431	.002	.858
""						
""						
""						
""						
""						
""						
""						
""						
""						
""						
""						
""						
""						
""						
""						
""						
""						
""						
""						
""						
""						
""						
""						
""						
""						
""						
""						
""						
""						
""						
""						
""						
""						
""						
""						
""						
""						
""						
""						
""						
""						
""						
""						
""						
""						
""						
""						
""						
""						
""						
""						
""						
""						
""						
""						
""						
