vars	N	n_surveyed	mean_surveyed	stdev_surveyed	coef_attrited	p_attrited
"members_resid_bl"	4465	4118	5.222	2.707	-.867	0
"nadults_resid_bl"	4465	4118	3.505	2.014	-.541	0
"nchildren_resid_bl"	4465	4118	1.705	1.643	-.323	0
"head_male_bl"	4465	4118	.942	.233	-.076	0
"head_age_bl"	4465	4118	48.396	15.89	-2.412	.021
"head_educ_1_bl"	4465	4118	.615	.487	-.086	.003
"borrowed_alamana_bl"	4465	4118	.006	.076	.005	.4
"borrowed_oformal2_bl"	4465	4118	.078	.268	0	.968
"borrowed_informal_bl"	4465	4118	.077	.266	.004	.718
"borrowed_branching_bl"	4465	4118	.162	.368	-.006	.637
"act_number_bl"	4465	4118	1.588	1.21	-.335	0
"act_agri_bl"	4465	4118	.614	.487	-.14	0
"act_livestock_bl"	4465	4118	.558	.497	-.125	0
"act_business_bl"	4465	4118	.197	.398	-.013	.518
"women_act_number_bl"	4465	4118	.214	.568	-.01	.767
"distance_soukpt_bl"	4125	3778	20.042	25.27	1.391	.224
"self_empl_bl"	4465	4118	.778	.416	-.1	0
"daily_dum_bl"	4465	4118	.573	.495	.036	.196
"consumption_bl"	4465	4118	2300.222	1353.128	-204.114	.001
"consumption_pc_bl"	4465	4118	640.648	790.723	156.975	.001
"poor_bl"	4465	4118	.249	.432	-.043	.059
""						
""						
""						
""						
""						
""						
""						
""						
""						
""						
""						
""						
""						
""						
""						
""						
""						
""						
""						
""						
""						
""						
""						
""						
""						
""						
""						
""						
""						
""						
""						
""						
""						
""						
""						
""						
""						
""						
""						
""						
""						
""						
""						
""						
""						
""						
""						
""						
""						
""						
""						
""						
""						
""						
""						
""						
""						
""						
""						
""						
""						
""						
""						
""						
""						
""						
""						
""						
""						
""						
""						
""						
""						
""						
""						
""						
""						
""						
""						
