vars	N	n_control	mean_control	stdev_control	coef_treat	p_treat
"m1"	4934	2486	6.277	3.103	.07	.512
"m2"	4934	2486	3.681	2.104	.051	.47
"m3"	4934	2486	1.42	.975	.023	.543
"m4"	4934	2486	.32	.654	-.047	.027
"m5"	4934	2486	.15	.357	0	.995
"m6"	4934	2486	11.441	9.122	-.659	.287
"m7c"	4934	2486	.146	.354	-.046	.003
"m8n"	4934	2486	.83	.375	-.015	.205
"m8s"	4934	2486	.798	.402	.023	.062
"m9a"	4934	2486	.623	.485	.017	.344
"m9b"	4934	2486	.173	.378	-.002	.87
"m9c"	4934	2486	.137	.344	-.009	.406
"m9d"	4934	2486	37.652	134.689	-3.29	.254
"m9e"	4934	2486	.251	.433	.04	.021
"m9fb"	4934	2486	.63	.483	-.005	.781
"m9fc"	4934	2486	.558	.497	-.001	.976
"m9g"	4934	2486	.265	6.214	.165	.249
"m10a"	4934	2486	41.496	101.852	-1.136	.637
"m10b"	4934	2486	544.134	960.014	-48.266	.063
"m11"	4934	2486	.236	.425	.012	.63
"m12"	4934	2486	.677	.468	.04	.012
"m13"	4934	2486	191.264	427.582	.588	.963
"m14"	4934	2486	.152	.36	.004	.738
""						
""						
""						
""						
""						
""						
""						
""						
""						
""						
""						
""						
""						
""						
""						
""						
""						
""						
""						
""						
""						
""						
""						
""						
""						
""						
""						
""						
""						
""						
""						
""						
""						
""						
""						
""						
""						
""						
""						
""						
""						
""						
""						
""						
""						
""						
""						
""						
""						
""						
""						
""						
""						
""						
""						
""						
""						
""						
""						
""						
""						
""						
""						
""						
""						
""						
""						
""						
""						
""						
""						
""						
""						
""						
""						
""						
